digraph G{
    //"TB", "LR", "BT", "RL",
    rankdir=LR;
    bgcolor="#b9e4ff";

    Node_1 -> Node_2;
    Node_2 -> Node_4;
    Node_3 -> Node_4;
    Node_4 -> Node_5;
    Node_5 -> Node_7;
    Node_6 -> Node_7;
    Node_7 -> Node_8;
    Node_8 -> Node_9;
    Node_9 -> Node_5;
    Node_9 -> Node_10;

    //label must be at the end to avoid applying to subgraphs
    label="Sample Diagram";
    fontsize=40;
    labelloc=top;
}
